Modelación y gestión de riesgos financieros
…
retornos %>%
  select(date, activo, ret_simple, ret_log) %>%
  slice_head(n = 8)
```

```
## Adding missing grouping variables: `symbol`
```

```
## # A tibble: 32 × 5
## # Groups:   symbol, activo [4]
##    symbol date       activo       ret_simple   ret_log
##    <chr>  <date>     <chr>             <dbl>     <dbl>
##  1 GLD    2021-01-05 Oro            0.00296   0.00296 
##  2 GLD    2021-01-06 Oro           -0.0162   -0.0164  
##  3 GLD    2021-01-07 Oro           -0.00233  -0.00234 
##  4 GLD    2021-01-08 Oro           -0.0342   -0.0348  
##  5 GLD    2021-01-11 Oro           -0.00196  -0.00196 
##  6 GLD    2021-01-12 Oro            0.00647   0.00645 
##  7 GLD    2021-01-13 Oro           -0.00431  -0.00432 
##  8 GLD    2021-01-14 Oro           -0.000519 -0.000519
##  9 SPY    2021-01-05 Acciones USA   0.00689   0.00686 
## 10 SPY    2021-01-06 Acciones USA   0.00598   0.00596 
## # ℹ 22 more rows
```
…
pnl %>%
  select(date, activo, cambio_precio, pnl_100) %>%
  slice_head(n = 8)
```

```
## Adding missing grouping variables: `symbol`
```

```
## # A tibble: 32 × 5
## # Groups:   symbol, activo [4]
##    symbol date       activo       cambio_precio pnl_100
##    <chr>  <date>     <chr>                <dbl>   <dbl>
##  1 GLD    2021-01-05 Oro                 0.540    54.0 
##  2 GLD    2021-01-06 Oro                -2.97   -297.  
##  3 GLD    2021-01-07 Oro                -0.420   -42.0 
##  4 GLD    2021-01-08 Oro                -6.14   -614.  
##  5 GLD    2021-01-11 Oro                -0.340   -34.0 
##  6 GLD    2021-01-12 Oro                 1.12    112.  
##  7 GLD    2021-01-13 Oro                -0.75    -75   
##  8 GLD    2021-01-14 Oro                -0.0900   -9.00
##  9 SPY    2021-01-05 Acciones USA        2.36    236.  
## 10 SPY    2021-01-06 Acciones USA        2.07    207.  
## # ℹ 22 more rows
```
…
